Country,City,City_Id,AVA_ID,URL
アメリカ,ハワイ島,2322,63,https://rtrp.jp/locations/2322/
Title,Explain,Date,View,Fav,Tag,Writer,Aricle_Link
アロハでマハロな楽園へ。次のハワイ旅で行く「ハワイ島」の注目スポット10選,ハワイといえばオアフ島を思い浮かべる人が多いのではないでしょうか。青い海に白い砂浜が広がるこの島は、多くの魅力が詰まっていて、何度も行きたくなりますよね。...,2019年03月07日,34596,435,"['グルメ', 'ハワイ', 'ハワイのグルメ']",Hallelujah,//rtrp.jp/articles/121419/
全て実食済み！ハワイ好き筆者が教える“本当に美味しい”ハワイ島グルメ9選,ハワイのビッグアイランド、「ハワイ島」。大自然に囲まれた大人のリゾート島ですが、飲食店やショッピング施設がオアフ島よりも少ないのが難点。そんなハワイ島で、...,2019年01月07日,43167,644,"['Instagramで話題', 'instagram', 'poke bowl']",hawaii_pua,//rtrp.jp/articles/119442/
日常の疲れを癒しに行こう。ハワイ島おすすめ観光スポット10選,"みなさん、ハワイで一番大きな島はどこか知っていますか？実は、ハワイの州都・ホノルルがあるオアフ島ではなく、ハワイ島と呼ばれる別の島なんです。""ビッグ・アイ...",2019年01月30日,27127,317,"['フォトジェニック', 'ALOHA', '＃パワースポット']",greensaladchan,//rtrp.jp/articles/119590/
どこか懐かしい街。ハワイ島・ヒロで見つけたカラフルスムージーに大注目,ハワイ島のノスタルジックタウン、ヒロ。そんなヒロのダウンタウンで見つけたとっても可愛らしいスイーツをご紹介します。暑いハワイにぴったりな、ジューシーなスム...,2019年01月01日,8346,164,"['カラフル', 'カラフルなグルメ', 'スムージー']",hawaii_pua,//rtrp.jp/articles/119240/
純白ビーチだけがハワイじゃない。大自然が魅力の「ハワイ島旅」をすすめる8つの理由,皆さんはハワイといってまずイメージするのは、白い砂浜が広がるワイキキビーチやショッピングエリアがあるオアフ島ではないでしょうか。そんなオアフ島が好きで何度...,2018年12月25日,16292,170,"['おすすめ', 'グルメ', 'コラム']",hawaii_pua,//rtrp.jp/articles/119120/
ハワイ島の航空券も当たる！リゾート派注目の「ハワイ島」3泊5日癒しの旅プラン,日本との直行便が就航して以来、新たなハワイ旅行の旅先として注目を集めている「ハワイ島」。今回は成田空港からJALの直行便で行く、リゾート派のあなたにおすす...,2019年03月14日,37459,560,"['JAL', 'ハワイ', 'ハワイ島']",RETRIP公式,//rtrp.jp/articles/120968/
豪華プレゼントの情報も！アクティブ派におすすめな「ハワイ島」3泊5日プランはこれだ,ハワイならではの雄大な自然の景色が楽しめる場所として、ハワイ旅行のリピーターや海外旅行好きからも注目を集めている「ハワイ島」。今回は成田空港からJALの直...,2019年03月14日,34754,439,"['JAL', 'ハワイ', 'ハワイ島']",RETRIP公式,//rtrp.jp/articles/120967/
